%YAML 1.1
%TAG !u! tag:unity3d.com,2011:
--- !u!114 &11400000
MonoBehaviour:
  m_ObjectHideFlags: 0
  m_CorrespondingSourceObject: {fileID: 0}
  m_PrefabInstance: {fileID: 0}
  m_PrefabAsset: {fileID: 0}
  m_GameObject: {fileID: 0}
  m_Enabled: 1
  m_EditorHideFlags: 0
  m_Script: {fileID: 11500000, guid: 216c5c743bcd82446aa22469a7dea38e, type: 3}
  m_Name: A10. FOBIn-Sight
  m_EditorClassIdentifier: 
  storyText: 'After a busy start to your day, you can finally see FOB Bravo in the
    distance. Your radio crackles and you hear HQ report about  interference on their
    long-range scanner near our position. You''re asked if you''re up to the challenge
    even though you''re so close to being finished with your mission.


    - 1)
    Accept extra mission.

    - 2) Reject extra mission.'
  nextStates:
  - {fileID: 11400000, guid: fb608e4f8680fc944947af781a6b1a40, type: 2}
  - {fileID: 11400000, guid: f71c0d2716888174b88b18dae70b8d18, type: 2}
