%YAML 1.1
%TAG !u! tag:unity3d.com,2011:
--- !u!114 &11400000
MonoBehaviour:
  m_ObjectHideFlags: 0
  m_CorrespondingSourceObject: {fileID: 0}
  m_PrefabInstance: {fileID: 0}
  m_PrefabAsset: {fileID: 0}
  m_GameObject: {fileID: 0}
  m_Enabled: 1
  m_EditorHideFlags: 0
  m_Script: {fileID: 11500000, guid: 216c5c743bcd82446aa22469a7dea38e, type: 3}
  m_Name: A2. CallAirSupport
  m_EditorClassIdentifier: 
  storyText: 'You immediately call in air support to begin dropping bombs on the
    enemy. After holding out for several minutes, the air support finally arrives
    and starts dropping bombs. The enemy retreats. During the fighting, your squad
    takes another casualty. The body is airlifted by medevac -- there is nothing
    left of the original soldier blown up by the mine.


    - 1) Continute on with
    patrol.

    - 2) Immediately begin pursuing the fleeing enemy.'
  nextStates:
  - {fileID: 11400000, guid: 1cc5f5bf812bfc541a99d9f30bbf7305, type: 2}
  - {fileID: 11400000, guid: d34dd42e964d10444b142f2de6fb2d6d, type: 2}
