%YAML 1.1
%TAG !u! tag:unity3d.com,2011:
--- !u!114 &11400000
MonoBehaviour:
  m_ObjectHideFlags: 0
  m_CorrespondingSourceObject: {fileID: 0}
  m_PrefabInstance: {fileID: 0}
  m_PrefabAsset: {fileID: 0}
  m_GameObject: {fileID: 0}
  m_Enabled: 1
  m_EditorHideFlags: 0
  m_Script: {fileID: 11500000, guid: 216c5c743bcd82446aa22469a7dea38e, type: 3}
  m_Name: A3. Retreat
  m_EditorClassIdentifier: 
  storyText: 'After quickly observing the situation you decide to retreat to a safer
    location and avoid being overrun. You start making your way back towards the
    safety of FOB Alpha which causes the attackers to not follow you.


    - 1)
    Call in an airstrike where you last saw the enemy.

    - 2) Take an alternate
    path to FOB Bravo.'
  nextStates:
  - {fileID: 11400000, guid: ea3023c0ac998ba4cb307d1069407794, type: 2}
  - {fileID: 11400000, guid: d34dd42e964d10444b142f2de6fb2d6d, type: 2}
