%YAML 1.1
%TAG !u! tag:unity3d.com,2011:
--- !u!114 &11400000
MonoBehaviour:
  m_ObjectHideFlags: 0
  m_CorrespondingSourceObject: {fileID: 0}
  m_PrefabInstance: {fileID: 0}
  m_PrefabAsset: {fileID: 0}
  m_GameObject: {fileID: 0}
  m_Enabled: 1
  m_EditorHideFlags: 0
  m_Script: {fileID: 11500000, guid: 216c5c743bcd82446aa22469a7dea38e, type: 3}
  m_Name: A4. MovementSpotted
  m_EditorClassIdentifier: 
  storyText: "Movement is spotted on short-range scanners just a few hundred meters
    out. \n\n- 1) Call in an airstrike on the targets.\n- 2) Get closer to investigate."
  nextStates:
  - {fileID: 11400000, guid: 496aaf84b6938b940b14b317513e501f, type: 2}
  - {fileID: 11400000, guid: 6bdda78d44757634eaf07e6fb2b95455, type: 2}
