%YAML 1.1
%TAG !u! tag:unity3d.com,2011:
--- !u!114 &11400000
MonoBehaviour:
  m_ObjectHideFlags: 0
  m_CorrespondingSourceObject: {fileID: 0}
  m_PrefabInstance: {fileID: 0}
  m_PrefabAsset: {fileID: 0}
  m_GameObject: {fileID: 0}
  m_Enabled: 1
  m_EditorHideFlags: 0
  m_Script: {fileID: 11500000, guid: 216c5c743bcd82446aa22469a7dea38e, type: 3}
  m_Name: A9. ReinforcementsDenied
  m_EditorClassIdentifier: 
  storyText: 'Reinforcements are denied by HQ. You''re told to proceed with the mission.


    1)
    Continue patrol.

    2) Request again for reinforcements.'
  nextStates:
  - {fileID: 11400000, guid: 3c15f23f0cf51f046bcc07c97114ab84, type: 2}
  - {fileID: 11400000}
