%YAML 1.1
%TAG !u! tag:unity3d.com,2011:
--- !u!114 &11400000
MonoBehaviour:
  m_ObjectHideFlags: 0
  m_CorrespondingSourceObject: {fileID: 0}
  m_PrefabInstance: {fileID: 0}
  m_PrefabAsset: {fileID: 0}
  m_GameObject: {fileID: 0}
  m_Enabled: 1
  m_EditorHideFlags: 0
  m_Script: {fileID: 11500000, guid: 216c5c743bcd82446aa22469a7dea38e, type: 3}
  m_Name: B1. ReportQuadBikeToCommand
  m_EditorClassIdentifier: 
  storyText: 'Command informs you that there is no intel on why that quad-bike is
    there. They suggest that it could be a trap.


    - 1) Order one of your soldiers
    to go and investigate cautiously.

    - 2) Go around and continue down your
    patrol path.

'
  nextStates:
  - {fileID: 11400000, guid: 5e76ca48487f81a4eb4b0f37b1cd7629, type: 2}
  - {fileID: 11400000, guid: 346f3879c5ef44a4caf6a4eecb03c4f6, type: 2}
